Eurovision Song Contest (1998-2010)
…
Before we begin, we will load all of the libraries that we are going to use throughout this tutorial.

library(tidyverse)
library(tidyr)
library(dplyr)
library(reshape)
library(ggplot2)

Now that we have loaded all of the necessary files, we are going to load in the dataset.

eurovision_df <- read_csv("Eurovision voting data 1998-2010 - All entries_ 1998-2010.csv")
eurovision_df

## # A tibble: 316 x 64
##     Year Country  Region     `Song language` English Artist     Song      
##    <int> <chr>    <chr>      <chr>           <chr>   <chr>      <chr>     
##  1  2010 Germany  Western E English         Yes     Lena Meye "\"Satell
##  2  2010 Turkey   Independe English         Yes     maNga      "\"We Cou
##  3  2010 Romania  Former So English         Yes     Paula Sel "\"Playin
##  4  2010 Denmark  Scandinav English         Yes     Chane an "\"In a M
##  5  2010 Azerbai Former So English         Yes     Safura Al "\"Drip D
##  6  2010 Belgium  Western E English         Yes     Tom Dice   "\"Me and
##  7  2010 Armenia  Former So English         Yes     Eva Rivas  "\"Aprico
##  8  2010 Greece   Western E Greek           No      Giorgos A "\"OPA\"" 
##  9  2010 Georgia  Former So English         Yes     Sopho Niz "\"Shine\
## 10  2010 Ukraine  Former So English         Yes     Alyosha    "\"Sweet 
## # ... with 306 more rows, and 57 more variables: `English
## #   translation` <chr>, `Artist gender` <chr>, `Group/Solo` <chr>,
## #   Place <int>, Points <int>, `Host Country` <chr>, `Host region` <chr>,
## #   `Home/Away Country` <chr>, `Home/Away Region` <chr>, `Approximate
## #   Betting Prices` <int>, Albania <int>, Andorra <int>, Armenia <int>,
## #   Austria <int>, Azerbaijan <int>, Belarus <int>, Belgium <int>, `Bosnia
## #   and Herzegovina` <int>, Bulgaria <int>, Croatia <int>, Cyprus <int>,
## #   `Czech Republic` <int>, Denmark <int>, Estonia <int>, Finland <int>,
## #   France <int>, Georgia <int>, Germany <int>, Greece <int>,
…
1.1 Looking at our data

Now we have a data frame called eurovision_df. In the data frame, we can see the year of the Eurovision competition, the country that participated along with what region it is from, the language the song was sung in, whether or not it was in English, the name of the artist representing the country, the song they sang, if there is an English translation of the song, the gender of the artist, wherter or not it was a group or a solo performance, what place they received, the total number of points they received, the country in which the competition was hosted in, the region the competition was hosted in, whether it was home country or away, whether is was a home region or away, the approximate betting prices, and then a breakdown of how many points each of the countries gave that country. Any missing data has an NA.

1.2 Tidying our data

The data that we have includes everything about each of the countries and the songs and artists that represented that country. In order to determine if a certain country votes for one more than the other, we dont need to know the other information about the country so we can remove them from the table. With the dplyr library that we installed earlier, we can use the select function and deselect everything that we do not want in out table. The following code fragment does that for us.

If you want to learn more about the dpylr library, you can read more about it here: https://www.r-project.org/nosvn/pandoc/dplyr.html

eurovision <- select(eurovision_df, -Year, -Region, -Song, -English, -Artist, -`Song language`, -`Artist gender`, -`English translation`, -`Group/Solo`, -`Host Country`, -`Host region`, -`Home/Away Country`, -`Home/Away Region`, -`Approximate Betting Prices`, -Place, -Points)
eurovision

## # A tibble: 316 x 48
##    Country    Albania Andorra Armenia Austria Azerbaijan Belarus Belgium
##    <chr>        <int>   <int>   <int>   <int>      <int>   <int>   <int>
##  1 Germany         10      NA       0      NA          1       0      10
##  2 Turkey           8      NA       0      NA         12       3       6
##  3 Romania          5      NA       1      NA          7       1       0
##  4 Denmark          2      NA       5      NA          4       0       2
##  5 Azerbaijan       0      NA       0      NA          0       6       5
##  6 Belgium          0      NA       0      NA          0       0       0
##  7 Armenia          0      NA       0      NA          0       5       7
##  8 Greece          12      NA       3      NA          0       0      12
##  9 Georgia          0      NA      12      NA          8       7       4
## 10 Ukraine          0      NA       8      NA         10      10       0
## # ... with 306 more rows, and 40 more variables: `Bosnia and
## #   Herzegovina` <int>, Bulgaria <int>, Croatia <int>, Cyprus <int>,
## #   `Czech Republic` <int>, Denmark <int>, Estonia <int>, Finland <int>,
## #   France <int>, Georgia <int>, Germany <int>, Greece <int>,
## #   Hungary <int>, Iceland <int>, Ireland <int>, Israel <int>,
## #   Latvia <int>, Lithuania <int>, Macedonia <int>, Malta <int>,
## #   Moldova <int>, Monaco <int>, Montenegro <int>, Netherlands <int>,
## #   Norway <int>, Poland <int>, Portugal <int>, Romania <int>,
## #   Russia <int>, `San Marino` <int>, Serbia <int>, `Serbia &
…
2.1.1 Analysis

Based on the data that we gathered, we can tell that there are definitely some countries that vote for some countries more than others. For example, the most points that a country can give another country at the eurovision contest is 12 points. If we look at our data, since we used the average, the only countries that always gave a certain country a perfect score, were Turkey, Greece, Switzerland, and Croatia. Turkey always gave Azerbaijan a perfect score, Greece always gives Bulgaria a perfect score, and Switzerland and Croatia always gave Serbia and Montenegro a perfect score. Its no coincedence that they happened to always love the performances of those countries the best and always give them a perfect score.

2.2 Looking at Votes between Countries and their Regions

We looked at what countries gave more or less points to which countries and we could see some interesting things. Another thing that we can look at which can help us see if there is any relationship between them, is the regions and how the voting is distributed there.

Lets bring back the data that we had in the beginning so that we can get the data that we want.

This is the same data that we had in the beginning:

eurovision_df

## # A tibble: 316 x 64
##     Year Country  Region     `Song language` English Artist     Song      
##    <int> <chr>    <chr>      <chr>           <chr>   <chr>      <chr>     
##  1  2010 Germany  Western E English         Yes     Lena Meye "\"Satell
##  2  2010 Turkey   Independe English         Yes     maNga      "\"We Cou
##  3  2010 Romania  Former So English         Yes     Paula Sel "\"Playin
##  4  2010 Denmark  Scandinav English         Yes     Chane an "\"In a M
##  5  2010 Azerbai Former So English         Yes     Safura Al "\"Drip D
##  6  2010 Belgium  Western E English         Yes     Tom Dice   "\"Me and
##  7  2010 Armenia  Former So English         Yes     Eva Rivas  "\"Aprico
##  8  2010 Greece   Western E Greek           No      Giorgos A "\"OPA\"" 
##  9  2010 Georgia  Former So English         Yes     Sopho Niz "\"Shine\
## 10  2010 Ukraine  Former So English         Yes     Alyosha    "\"Sweet 
## # ... with 306 more rows, and 57 more variables: `English
## #   translation` <chr>, `Artist gender` <chr>, `Group/Solo` <chr>,
## #   Place <int>, Points <int>, `Host Country` <chr>, `Host region` <chr>,
## #   `Home/Away Country` <chr>, `Home/Away Region` <chr>, `Approximate
## #   Betting Prices` <int>, Albania <int>, Andorra <int>, Armenia <int>,
## #   Austria <int>, Azerbaijan <int>, Belarus <int>, Belgium <int>, `Bosnia
## #   and Herzegovina` <int>, Bulgaria <int>, Croatia <int>, Cyprus <int>,
## #   `Czech Republic` <int>, Denmark <int>, Estonia <int>, Finland <int>,
## #   France <int>, Georgia <int>, Germany <int>, Greece <int>,
…
Now, like before, lets get rid of the data that we dont need and keep what we do. We are going to remove most of the data that we did before except this time, instead of getting rid of the Region column, we are going to get rid of the Country column.

We also want to make sure that we put in a zero anywhere where there is an NA. If we do not do that, then when we combine the regions to give the mean points from each region, then we will get NA for everthing.

eurovision_region <- select(eurovision_df, -Year, -Country, -Song, -English, -Artist, -`Song language`, -`Artist gender`, -`English translation`, -`Group/Solo`, -`Host Country`, -`Host region`, -`Home/Away Country`, -`Home/Away Region`, -`Approximate Betting Prices`, -Place, -Points)
eurovision_region[is.na(eurovision_region)] <- 0
eurovision_region

## # A tibble: 316 x 48
##    Region       Albania Andorra Armenia Austria Azerbaijan Belarus Belgium
##    <chr>          <dbl>   <dbl>   <dbl>   <dbl>      <dbl>   <dbl>   <dbl>
##  1 Western Eur   10.0        0    0          0       1.00    0      10.0 
##  2 Independent     8.00       0    0          0      12.0     3.00    6.00
##  3 Former Soci    5.00       0    1.00       0       7.00    1.00    0   
##  4 Scandinavia     2.00       0    5.00       0       4.00    0       2.00
##  5 Former Soci    0          0    0          0       0       6.00    5.00
##  6 Western Eur    0          0    0          0       0       0       0   
##  7 Former Soci    0          0    0          0       0       5.00    7.00
##  8 Western Eur   12.0        0    3.00       0       0       0      12.0 
##  9 Former Soci    0          0   12.0        0       8.00    7.00    4.00
## 10 Former Soci    0          0    8.00       0      10.0    10.0     0   
## # ... with 306 more rows, and 40 more variables: `Bosnia and
## #   Herzegovina` <dbl>, Bulgaria <dbl>, Croatia <dbl>, Cyprus <dbl>,
## #   `Czech Republic` <dbl>, Denmark <dbl>, Estonia <dbl>, Finland <dbl>,
## #   France <dbl>, Georgia <dbl>, Germany <dbl>, Greece <dbl>,
## #   Hungary <dbl>, Iceland <dbl>, Ireland <dbl>, Israel <dbl>,
## #   Latvia <dbl>, Lithuania <dbl>, Macedonia <dbl>, Malta <dbl>,
## #   Moldova <dbl>, Monaco <dbl>, Montenegro <dbl>, Netherlands <dbl>,
## #   Norway <dbl>, Poland <dbl>, Portugal <dbl>, Romania <dbl>,
## #   Russia <dbl>, `San Marino` <dbl>, Serbia <dbl>, `Serbia &
…
